[W: 0 ]: attack!!!
[B:0/4]: trying to cross
[B:1/4]: waiting
[W: 1 ]: attack!!!
[B:1/4]: trying to cross
[B:2/4]: waiting
[W: 2 ]: attack!!!
[B:2/4]: trying to cross
[B:3/4]: waiting
[W: 3 ]: attack!!!
[B:3/4]: trying to cross
[B:4/4]: Wall is breached!
[W: 0 ]: attack!!!
[W: 1 ]: attack!!!
[W: 2 ]: attack!!!
[B:0/4]: Wall is strong again
[W: 3 ]: attack!!!
[B:0/4]: trying to cross
[B:1/4]: waiting
[B:1/4]: trying to cross
[B:2/4]: waiting
[B:2/4]: trying to cross
[B:3/4]: waiting
[B:3/4]: trying to cross
[B:4/4]: Wall is breached!
[W: 0 ]: attack!!!
[W: 1 ]: attack!!!
[W: 2 ]: attack!!!
[B:0/4]: Wall is strong again
[W: 3 ]: attack!!!
[B:0/4]: trying to cross
[B:1/4]: waiting
[B:1/4]: trying to cross
[B:2/4]: waiting
[B:2/4]: trying to cross
[B:3/4]: waiting
[B:3/4]: trying to cross
[B:4/4]: Wall is breached!
[W: 0 ]: attack!!!
[W: 1 ]: attack!!!
[W: 2 ]: attack!!!
[B:0/4]: Wall is strong again
[W: 3 ]: attack!!!
[B:0/4]: trying to cross
[B:1/4]: waiting
[B:1/4]: trying to cross
[B:2/4]: waiting
[B:2/4]: trying to cross
[B:3/4]: waiting
[B:3/4]: trying to cross
[B:4/4]: Wall is breached!
[B:0/4]: Wall is strong again
