[P] produced: 1
[B] insert 1
[P] produced: 2
[B] insert 2
[B] remove 1
[C] consuming: 1
[B] remove 2
[C] consuming: 2
[P] produced: 3
[B] insert 3
[P] produced: 4
[B] remove 3
[C] consuming: 3
[B] insert 4
[P] produced: 5
[B] remove 4
[C] consuming: 4
[B] insert 5
[B] remove 5
[C] consuming: 5
[P] produced: 6
[B] insert 6
[B] remove 6
[C] consuming: 6
[P] produced: 7
[B] insert 7
[P] produced: 8
[B] remove 7
[C] consuming: 7
[B] insert 8
[B] remove 8
[C] consuming: 8
[P] produced: 9
[B] insert 9
[P] produced: 10
[B] remove 9
[C] consuming: 9
[B] insert 10
[P] produced: 11
[B] insert 11
[B] remove 10
[C] consuming: 10
[B] remove 11
[C] consuming: 11
[P] produced: 12
[B] insert 12
[P] produced: 13
[B] remove 12
[C] consuming: 12
[B] insert 13
[P] produced: 14
[B] remove 13
[C] consuming: 13
[B] insert 14
[B] remove 14
[C] consuming: 14
[P] produced: 15
[B] insert 15
[P] produced: 16
[B] insert 16
[P] produced: 17
[B] remove 15
[C] consuming: 15
[B] insert 17
[B] remove 16
[C] consuming: 16
[B] remove 17
[C] consuming: 17
[P] produced: 18
[B] insert 18
[P] produced: 19
[B] remove 18
[C] consuming: 18
[B] insert 19
[P] produced: 20
[B] remove 19
[C] consuming: 19
[B] insert 20
[B] remove 20
[C] consuming: 20
[P] produced: 21
[B] insert 21
[P] produced: 22
[B] remove 21
[C] consuming: 21
[B] insert 22
[P] produced: 23
[B] remove 22
[C] consuming: 22
[B] insert 23
[B] remove 23
[C] consuming: 23
[P] produced: 24
[B] insert 24
[P] produced: 25
[B] remove 24
[C] consuming: 24
[B] insert 25
[P] produced: 26
[B] insert 26
[B] remove 25
[C] consuming: 25
[B] remove 26
[C] consuming: 26
[P] produced: 27
[B] insert 27
[P] produced: 28
[B] remove 27
[C] consuming: 27
[B] insert 28
[P] produced: 29
[B] remove 28
[C] consuming: 28
[B] insert 29
[B] remove 29
[C] consuming: 29
[P] produced: 30
[B] insert 30
[B] remove 30
[C] consuming: 30
